{
    "defaultSeverity": "error",
    "extends": ["tslint:latest","tslint-config-prettier"],
    "jsRules": {},
    "rules" : {
        "no-console" :false,
        "member-access":false,
        "object-literal-sort-keys" : false,
        "ordered-imports": true,
        "interface-name" : false,
        "no-submodule-imports" :false
    },
    "rulesDirectory": []
}